Member 1 DK – Project Title
…
cat("\n\n--- Key Model Coefficients (Excluding Zeroed Variables) ---\n")

--- Key Model Coefficients (Excluding Zeroed Variables) ---

Code

print(model_coefficients)

# A tibble: 506 × 5
   term                  step estimate   lambda dev.ratio
   <chr>                <dbl>    <dbl>    <dbl>     <dbl>
 1 Series_International    40    0.510 0.000610   0.00898
 2 Series_International    39    0.506 0.000670   0.00897
 3 Series_International    38    0.501 0.000735   0.00895
 4 Series_International    37    0.497 0.000807   0.00894
 5 Series_International    36    0.493 0.000885   0.00893
 6 Series_International    35    0.491 0.000972   0.00891
 7 Series_International    34    0.488 0.00107    0.00890
 8 Series_International    33    0.485 0.00117    0.00889
 9 Series_International    32    0.481 0.00128    0.00888
10 Series_International    31    0.478 0.00141    0.00886
# ℹ 496 more rows
…
